{
  "name": "template",
  "commandList": [
    {
      "name": "com1",
      "id": "com1",
      "callbackList": [
        {
          "description": "callback2",
          "argumentList": [
            {
              "name": "arg1",
              "type": "string"
            }
          ],
          "returnType": "string",
          "returnDescription": "a string.",
          "notes": [
            "A simple note"
          ]
        },
        {
          "description": "callback2",
          "argumentList": [
            {
              "name": "arg1",
              "type": "*number"
            }
          ],
          "returnType": "string",
          "returnDescription": "a string."
        }
      ]
    }
  ]
}